Sprint ,No of defects,Open,Ready,In Progress,In Review,Impeded,Done,Closed,Cancelled
Sprint 23.1.1,5,2,,1,,,1,1,
Sprint 23.1.2,10,5,1,,2,,,,2
Sprint 23.1.3,5,,,2,,1,,2,
Sprint 23.1.4,9,,2,3,,3,,,1
Sprint 23.2.1,14,3,,4,,,5,1,1
Sprint 23.2.2,14,1,2,3,1,1,4,1,1
Sprint 23.2.3,20,4,,5,5,,3,2,1
Sprint 23.2.4,9,2,,2,,1,2,1,1
Sprint 23.3.1,19,2,2,1,5,1,1,5,2
Sprint 23.3.2,17,1,6,4,3,,2,1,
Sprint 23.3.3,12,1,,1,,,2,8,
Sprint 23.3.4,13,2,4,,,,6,1,
Sprint 23.4.1,10,2,,3,2,,,,3
Sprint 23.4.2,15,5,1,1,2,,3,2,1
Sprint 23.4.3,8,2,1,2,,,2,1,
Sprint 23.4.4,24,4,6,6,2,2,2,2,